<?xml version="1.0" encoding="UTF-8" standalone="no"?>
<!-- Created with Inkscape (http://www.inkscape.org/) -->

<svg
   xmlns:dc="http://purl.org/dc/elements/1.1/"
   xmlns:cc="http://creativecommons.org/ns#"
   xmlns:rdf="http://www.w3.org/1999/02/22-rdf-syntax-ns#"
   xmlns:svg="http://www.w3.org/2000/svg"
   xmlns="http://www.w3.org/2000/svg"
   xmlns:xlink="http://www.w3.org/1999/xlink"
   xmlns:sodipodi="http://sodipodi.sourceforge.net/DTD/sodipodi-0.dtd"
   xmlns:inkscape="http://www.inkscape.org/namespaces/inkscape"
   width="744.09448819"
   height="1052.3622047"
   id="svg3787"
   version="1.1"
   inkscape:version="0.48.4 r9939"
   sodipodi:docname="red_glove_suit.svg"
   inkscape:export-filename="D:\dev\git\ld46\CharacterLibrary\red_glove_suit\whole_body_ref.png"
   inkscape:export-xdpi="72"
   inkscape:export-ydpi="72">
  <defs
     id="defs3789">
    <linearGradient
       id="linearGradient3836">
      <stop
         style="stop-color:#d4aa00;stop-opacity:1;"
         offset="0"
         id="stop3838" />
      <stop
         id="stop3844"
         offset="0.48784053"
         style="stop-color:#00506a;stop-opacity:1;" />
      <stop
         style="stop-color:#002835;stop-opacity:1;"
         offset="0.77565587"
         id="stop3846" />
      <stop
         style="stop-color:#000000;stop-opacity:1;"
         offset="1"
         id="stop3840" />
    </linearGradient>
    <linearGradient
       inkscape:collect="always"
       xlink:href="#linearGradient3836"
       id="linearGradient3842"
       x1="388.40363"
       y1="425.05743"
       x2="425.2742"
       y2="575.57019"
       gradientUnits="userSpaceOnUse" />
    <clipPath
       clipPathUnits="userSpaceOnUse"
       id="clipPath4553">
      <path
         sodipodi:type="arc"
         style="fill:#800014;fill-opacity:1;stroke:none"
         id="path4555"
         sodipodi:cx="99.285713"
         sodipodi:cy="321.64789"
         sodipodi:rx="130.71428"
         sodipodi:ry="130.71428"
         d="m 229.99999,321.64789 a 130.71428,130.71428 0 1 1 -261.428556,0 130.71428,130.71428 0 1 1 261.428556,0 z" />
    </clipPath>
    <clipPath
       clipPathUnits="userSpaceOnUse"
       id="clipPath4644">
      <g
         id="g4646">
        <path
           d="m 514.28572,163.79076 a 155.71428,114.28571 0 1 1 -311.42856,0 155.71428,114.28571 0 1 1 311.42856,0 z"
           sodipodi:ry="114.28571"
           sodipodi:rx="155.71428"
           sodipodi:cy="163.79076"
           sodipodi:cx="358.57144"
           id="path4648"
           style="fill:#ffffff;fill-opacity:1;stroke:#24221c"
           sodipodi:type="arc" />
        <path
           d="m 482.11024,418.79074 a 107.48369,66.428574 0 1 1 -214.96737,0 107.48369,66.428574 0 1 1 214.96737,0 z"
           sodipodi:ry="66.428574"
           sodipodi:rx="107.48369"
           sodipodi:cy="418.79074"
           sodipodi:cx="374.62656"
           id="path4650"
           style="fill:#ffffff;fill-opacity:1;stroke:#24221c"
           sodipodi:type="arc" />
      </g>
    </clipPath>
    <clipPath
       clipPathUnits="userSpaceOnUse"
       id="clipPath4694">
      <use
         x="0"
         y="0"
         xlink:href="#path4664"
         id="use4696"
         style="fill:#ffffff"
         transform="matrix(1.5271814,-0.50905482,0.56022547,1.6806949,-279.44949,69.286289)"
         width="1"
         height="1" />
    </clipPath>
  </defs>
  <sodipodi:namedview
     id="base"
     pagecolor="#000000"
     bordercolor="#666666"
     borderopacity="1.0"
     inkscape:pageopacity="0"
     inkscape:pageshadow="2"
     inkscape:zoom="1.7739683"
     inkscape:cx="372.04724"
     inkscape:cy="652.11892"
     inkscape:document-units="px"
     inkscape:current-layer="layer18"
     showgrid="false"
     inkscape:window-width="1680"
     inkscape:window-height="988"
     inkscape:window-x="-8"
     inkscape:window-y="-8"
     inkscape:window-maximized="1" />
  <metadata
     id="metadata3792">
    <rdf:RDF>
      <cc:Work
         rdf:about="">
        <dc:format>image/svg+xml</dc:format>
        <dc:type
           rdf:resource="http://purl.org/dc/dcmitype/StillImage" />
        <dc:title></dc:title>
      </cc:Work>
    </rdf:RDF>
  </metadata>
  <g
     inkscape:groupmode="layer"
     id="layer22"
     inkscape:label="LeftArm"
     style="display:inline"
     sodipodi:insensitive="true">
    <g
       id="left_arm_group"
       transform="matrix(-1,0,0,1,615.52715,0)">
      <path
         style="fill:#000000;stroke:none"
         d="m 209.51999,427.25107 c -15.9378,25.3157 -9.37064,47.40162 -0.0508,57.40538 8.24845,-0.71053 13.63744,-1.07628 21.74366,-0.65301 1.32051,-14.93387 2.0098,-25.4884 8.07071,-34.57977 2.99779,-4.49668 3.71526,-21.29532 -4.20026,-26.1266 -8.08805,-4.93658 -21.31906,-2.78765 -25.56335,3.954 z"
         id="path4758"
         inkscape:connector-curvature="0"
         sodipodi:nodetypes="sccsss"
         inkscape:export-filename="D:\dev\git\ld46\CharacterLibrary\red_glove_suit\left_forearm.png"
         inkscape:export-xdpi="72"
         inkscape:export-ydpi="72" />
      <path
         style="fill:#000000;stroke:#000000;stroke-width:1px;stroke-linecap:butt;stroke-linejoin:miter;stroke-opacity:1"
         d="m 252.85714,389.50504 c -12.20517,3.05129 -22.54266,7.21799 -37.14285,27.14286 -6.49798,8.8678 -10.16737,19.13027 -7.7346,26.42857 2.14286,6.42857 14.86337,15.28784 26.30602,9.28571 17.12824,-8.98445 34.16115,-14.36678 37.14286,-30 2.35704,-12.35803 -12.85714,-34.28571 -18.57143,-32.85714 z"
         id="path4760"
         inkscape:connector-curvature="0"
         sodipodi:nodetypes="ssssas"
         inkscape:export-filename="D:\dev\git\ld46\CharacterLibrary\red_glove_suit\left_bicep.png"
         inkscape:export-xdpi="72"
         inkscape:export-ydpi="72" />
      <path
         style="fill:#ff0000;stroke:#000000;stroke-width:1px;stroke-linecap:butt;stroke-linejoin:miter;stroke-opacity:1"
         d="m 206.07112,483.6463 c -6.06092,19.1929 1.01015,44.44671 1.01015,44.44671 l 47.47717,1.01015 5.05076,-24.24366 c 0,0 -3.03045,-22.22335 -16.16244,-22.22335 -13.13198,0 -37.37564,1.01015 -37.37564,1.01015 z"
         id="path4762"
         inkscape:connector-curvature="0"
         inkscape:export-filename="D:\dev\git\ld46\CharacterLibrary\red_glove_suit\left_glove.png"
         inkscape:export-xdpi="72"
         inkscape:export-ydpi="72" />
    </g>
  </g>
  <g
     inkscape:groupmode="layer"
     id="layer23"
     inkscape:label="Legs"
     style="display:inline"
     sodipodi:insensitive="true">
    <g
       id="left_leg">
      <path
         sodipodi:nodetypes="csssc"
         inkscape:connector-curvature="0"
         id="path4803"
         d="m 307.08637,574.05495 c 1.01016,6.56599 11.11168,5.55584 23.73859,5.55584 16.66752,0 45.45687,0 45.45687,-6.56599 0,-6.56599 -39.90103,-24.24366 -53.03302,-20.20305 -13.13198,4.04061 -18.68782,8.5863 -16.16244,21.2132 z"
         style="fill:#ffffff;stroke:#000000;stroke-width:1px;stroke-linecap:butt;stroke-linejoin:miter;stroke-opacity:1;display:inline"
         inkscape:export-filename="D:\dev\git\ld46\CharacterLibrary\red_glove_suit\left_foot_side.png"
         inkscape:export-xdpi="72"
         inkscape:export-ydpi="72" />
      <path
         sodipodi:nodetypes="csssc"
         inkscape:connector-curvature="0"
         id="path4790"
         d="m 340.92648,487.18183 c 6.566,4.04061 18.68783,24.24366 15.65737,48.48733 -3.03046,24.24366 -33.30896,19.22046 -41.92133,-5.05077 -5.55584,-15.65736 -14.14214,-8.08122 -15.65737,-30.80965 -0.98125,-14.71868 19.1929,-24.24366 41.92133,-12.62691 z"
         style="fill:#000000;stroke:#000000;stroke-width:1px;stroke-linecap:butt;stroke-linejoin:miter;stroke-opacity:1"
         inkscape:export-filename="D:\dev\git\ld46\CharacterLibrary\red_glove_suit\left_thigh.png"
         inkscape:export-xdpi="72"
         inkscape:export-ydpi="72" />
      <path
         sodipodi:nodetypes="scsss"
         inkscape:connector-curvature="0"
         id="path4788"
         d="m 349.0077,524.0524 c 8.83712,-7.2433 13.03571,20.90347 -1.51522,41.41626 0,0 -27.73499,2.1801 -37.93522,-2.04871 -6.96866,-2.88906 6.98844,-16.44891 5.29923,-32.8216 -2.31628,-22.45045 30.37325,-3.44936 34.15121,-6.54595 z"
         style="fill:#000000;stroke:#000000;stroke-width:1px;stroke-linecap:butt;stroke-linejoin:miter;stroke-opacity:1"
         inkscape:export-filename="D:\dev\git\ld46\CharacterLibrary\red_glove_suit\left_calf.png"
         inkscape:export-xdpi="72"
         inkscape:export-ydpi="72" />
    </g>
    <g
       id="right_leg"
       transform="matrix(1.3078401,0,0,1.1509549,-164.84437,-79.724491)">
      <g
         id="g4834">
        <path
           sodipodi:nodetypes="csssc"
           inkscape:connector-curvature="0"
           id="path4819"
           d="m 307.08637,574.05495 c 1.01016,6.56599 14.64721,7.57615 27.27412,7.57615 16.66752,0 33.84012,-2.02031 33.84012,-8.5863 0,-6.56599 -31.81981,-24.24366 -44.9518,-20.20305 -13.13198,4.04061 -18.68782,8.5863 -16.16244,21.2132 z"
           style="fill:#ffffff;stroke:#000000;stroke-width:1px;stroke-linecap:butt;stroke-linejoin:miter;stroke-opacity:1;display:inline"
           inkscape:export-filename="D:\dev\git\ld46\CharacterLibrary\red_glove_suit\right_foot_quarter.png"
           inkscape:export-xdpi="72"
           inkscape:export-ydpi="72" />
        <path
           sodipodi:nodetypes="csssc"
           inkscape:connector-curvature="0"
           id="path4821"
           d="m 354.56354,488.19198 c 8.27714,2.59462 20.43923,31.10615 6.566,51.01271 -13.96953,20.04473 -31.79373,14.67478 -40.4061,-9.59645 -5.55584,-15.65736 -1.27749,-13.13199 -2.79272,-35.86042 -0.98125,-14.71868 13.90439,-17.17259 36.63282,-5.55584 z"
           style="fill:#000000;stroke:#000000;stroke-width:1px;stroke-linecap:butt;stroke-linejoin:miter;stroke-opacity:1"
           inkscape:export-filename="D:\dev\git\ld46\CharacterLibrary\red_glove_suit\right_thigh.png"
           inkscape:export-xdpi="72"
           inkscape:export-ydpi="72" />
        <path
           sodipodi:nodetypes="ccsssc"
           inkscape:connector-curvature="0"
           id="path4823"
           d="m 361.63461,528.09301 c 8.83712,-7.2433 4.95449,10.80194 -9.59644,31.31473 0,0 -24.19946,-8.93157 -42.48091,4.01221 -6.15681,4.3592 10.52397,-18.97429 8.83476,-35.34698 -2.31628,-22.45045 39.46463,3.11663 43.24259,0.02 z"
           style="fill:#000000;stroke:#000000;stroke-width:1px;stroke-linecap:butt;stroke-linejoin:miter;stroke-opacity:1"
           inkscape:export-filename="D:\dev\git\ld46\CharacterLibrary\red_glove_suit\right_calf.png"
           inkscape:export-xdpi="72"
           inkscape:export-ydpi="72" />
      </g>
    </g>
  </g>
  <g
     inkscape:groupmode="layer"
     id="layer20"
     inkscape:label="Body"
     style="display:inline"
     sodipodi:insensitive="true">
    <g
       id="body"
       inkscape:export-filename="D:\dev\git\ld46\CharacterLibrary\red_glove_suit\body.png"
       inkscape:export-xdpi="72"
       inkscape:export-ydpi="72">
      <path
         inkscape:export-ydpi="72"
         inkscape:export-xdpi="72"
         inkscape:export-filename="D:\dev\git\ld46\CharacterLibrary\red_glove_suit\suit.png"
         sodipodi:nodetypes="sssssss"
         inkscape:connector-curvature="0"
         id="suit"
         d="m 367.14286,448.79075 c 0,35.10953 -41.14863,62.14286 -74.28571,62.14286 -22.43633,0 -45.49328,0.43938 -52.82566,-19.30828 -3.4971,-9.41842 2.82566,-34.35402 2.82566,-45.69172 0,-35.10953 16.86291,-62.14286 50,-62.14286 11.98124,0 37.97511,2.21645 49.72737,8.86546 20.75152,11.74045 24.55834,33.71942 24.55834,56.13454 z"
         style="fill:#000000;fill-opacity:1;stroke:#000000" />
      <path
         inkscape:connector-curvature="0"
         id="undershirt"
         d="m 314.28571,405.21933 c 10,31.42857 10,68.57142 4.28572,78.57142 -5.71429,10 18.57143,2.85715 18.57143,2.85715 0,0 34.28571,-60 20,-74.28572 -14.28572,-14.28571 -42.85715,-7.14285 -42.85715,-7.14285 z"
         style="fill:#ffffff;stroke:#000000;stroke-width:1px;stroke-linecap:butt;stroke-linejoin:miter;stroke-opacity:1" />
    </g>
  </g>
  <g
     inkscape:groupmode="layer"
     id="layer21"
     inkscape:label="RightArm"
     style="display:inline">
    <g
       id="right_arm_group"
       inkscape:export-filename="D:\dev\git\ld46\CharacterLibrary\red_glove_suit\right_arm_group.png"
       inkscape:export-xdpi="72"
       inkscape:export-ydpi="72">
      <path
         sodipodi:nodetypes="sccsss"
         inkscape:connector-curvature="0"
         id="right_forearm"
         d="m 209.51999,427.25107 c -15.9378,25.3157 -9.37064,47.40162 -0.0508,57.40538 8.24845,-0.71053 13.63744,-1.07628 21.74366,-0.65301 1.32051,-14.93387 2.0098,-25.4884 8.07071,-34.57977 2.99779,-4.49668 3.71526,-21.29532 -4.20026,-26.1266 -8.08805,-4.93658 -21.31906,-2.78765 -25.56335,3.954 z"
         style="fill:#000000;stroke:none"
         inkscape:export-filename="D:\dev\git\ld46\CharacterLibrary\red_glove_suit\right_forearm.png"
         inkscape:export-xdpi="72"
         inkscape:export-ydpi="72" />
      <path
         sodipodi:nodetypes="ssssas"
         inkscape:connector-curvature="0"
         id="right_arm"
         d="m 252.85714,389.50504 c -12.20517,3.05129 -22.54266,7.21799 -37.14285,27.14286 -6.49798,8.8678 -10.16737,19.13027 -7.7346,26.42857 2.14286,6.42857 14.86337,15.28784 26.30602,9.28571 17.12824,-8.98445 34.16115,-14.36678 37.14286,-30 2.35704,-12.35803 -12.85714,-34.28571 -18.57143,-32.85714 z"
         style="fill:#000000;stroke:#000000;stroke-width:1px;stroke-linecap:butt;stroke-linejoin:miter;stroke-opacity:1"
         inkscape:export-filename="D:\dev\git\ld46\CharacterLibrary\red_glove_suit\right_bicep.png"
         inkscape:export-xdpi="72"
         inkscape:export-ydpi="72" />
      <path
         inkscape:connector-curvature="0"
         id="right_glove"
         d="m 206.07112,483.6463 c -6.06092,19.1929 1.01015,44.44671 1.01015,44.44671 l 47.47717,1.01015 5.05076,-24.24366 c 0,0 -3.03045,-22.22335 -16.16244,-22.22335 -13.13198,0 -37.37564,1.01015 -37.37564,1.01015 z"
         style="fill:#ff0000;stroke:#000000;stroke-width:1px;stroke-linecap:butt;stroke-linejoin:miter;stroke-opacity:1"
         inkscape:export-filename="D:\dev\git\ld46\CharacterLibrary\red_glove_suit\right_glove.png"
         inkscape:export-xdpi="72"
         inkscape:export-ydpi="72" />
    </g>
  </g>
  <g
     inkscape:groupmode="layer"
     id="layer15"
     inkscape:label="BaseHead"
     style="display:inline"
     sodipodi:insensitive="true">
    <path
       style="fill-opacity:1;stroke:#000000;stroke-opacity:1"
       d="m 465.71428,303.07648 c 0,72.1915 -51.37992,142.14285 -84.99999,139.28571 -71.93222,-6.11303 -176.42857,-67.09421 -176.42857,-139.28571 0,-72.19151 58.52278,-130.71428 130.71428,-130.71428 72.1915,0 130.71428,58.52277 130.71428,130.71428 z"
       id="BaseHeadShape"
       inkscape:connector-curvature="0"
       sodipodi:nodetypes="sssss" />
  </g>
  <g
     inkscape:groupmode="layer"
     id="layer16"
     inkscape:label="Face"
     style="display:inline"
     sodipodi:insensitive="true">
    <use
       x="0"
       y="0"
       xlink:href="#BaseHeadShape"
       id="BaseHeadColor"
       width="744.09448"
       height="1052.3622"
       style="fill:#483737;fill-opacity:1;stroke:none"
       inkscape:export-filename="D:\dev\git\ld46\CharacterLibrary\red_glove_suit\head.png"
       inkscape:export-xdpi="72"
       inkscape:export-ydpi="72" />
  </g>
  <g
     inkscape:groupmode="layer"
     id="layer19"
     inkscape:label="Eyes"
     style="display:inline"
     sodipodi:insensitive="true">
    <g
       id="g4830"
       inkscape:export-filename="D:\dev\git\ld46\CharacterLibrary\red_glove_suit\eyes.png"
       inkscape:export-xdpi="72"
       inkscape:export-ydpi="72">
      <path
         sodipodi:nodetypes="ccsc"
         inkscape:connector-curvature="0"
         id="path4699"
         d="m 257.14286,308.07647 105.71428,32.85715 c 0,0 -29.43856,40.29542 -64.28571,32.85714 -25.32395,-5.40551 -41.42857,-65.71429 -41.42857,-65.71429 z"
         style="fill:#ffff00;stroke:#000000;stroke-width:1px;stroke-linecap:butt;stroke-linejoin:miter;stroke-opacity:1;display:inline" />
      <path
         style="fill:#ffff00;stroke:#000000;stroke-width:1px;stroke-linecap:butt;stroke-linejoin:miter;stroke-opacity:1;display:inline"
         d="m 419.23084,347.34245 37.38228,-19.79068 c 0,0 -3.12523,48.30567 -18.57011,46.08571 -27.14409,-3.90155 -18.81217,-26.29503 -18.81217,-26.29503 z"
         id="path4701"
         inkscape:connector-curvature="0"
         sodipodi:nodetypes="ccsc" />
    </g>
  </g>
  <g
     inkscape:groupmode="layer"
     id="layer18"
     inkscape:label="Hat"
     style="display:inline"
     sodipodi:insensitive="true">
    <g
       id="g4707"
       transform="translate(-5.7142857,18.571429)"
       inkscape:export-filename="D:\dev\git\ld46\CharacterLibrary\red_glove_suit\hat.png"
       inkscape:export-xdpi="72"
       inkscape:export-ydpi="72">
      <path
         transform="matrix(0.91095748,0.27591402,-0.30364914,0.82775122,61.723244,-24.843706)"
         d="m 591.42856,205.21933 a 205,88.571426 0 1 1 -410,0 205,88.571426 0 1 1 410,0 z"
         sodipodi:ry="88.571426"
         sodipodi:rx="205"
         sodipodi:cy="205.21933"
         sodipodi:cx="386.42856"
         id="path4660"
         style="fill:#000000;fill-opacity:1;stroke:#000000"
         sodipodi:type="arc" />
      <path
         sodipodi:nodetypes="sssss"
         inkscape:connector-curvature="0"
         id="path4664"
         d="m 591.42856,205.21933 c 0,48.91665 -91.78163,88.57143 -205,88.57143 -113.21838,0 -205,-39.65478 -205,-88.57143 0,-48.91665 29.53634,-248.344753 142.75472,-248.344753 113.21837,0 267.24528,199.428103 267.24528,248.344753 z"
         style="fill:#f9f9f9;fill-opacity:1;stroke:#000000"
         transform="matrix(0.63576133,0.19256164,-0.2119181,0.57769131,159.24191,34.397448)" />
      <path
         clip-path="url(#clipPath4694)"
         sodipodi:nodetypes="sssss"
         inkscape:connector-curvature="0"
         id="path4671"
         d="m 591.42856,205.21933 c 0,48.91665 -91.78163,88.57143 -205,88.57143 -113.21838,0 -205,-39.65478 -205,-88.57143 0,-48.91665 39.10285,-268.426559 152.32123,-268.426559 113.21837,0 257.67877,219.509909 257.67877,268.426559 z"
         style="fill:#000000;fill-opacity:1;stroke:#000000"
         transform="matrix(0.58932227,0.17849601,-0.19643859,0.53549396,178.29631,12.77823)" />
    </g>
  </g>
</svg>
